{

		"TITLE" : "SEO",
		"ICON" : "icon.png",
		"TYPE" : "modul",
		"MODUL" :
		{
			"REQUIRED" :
			{
				
				"wp_smarty" :
				{
					"VERSION" : "100",
					"URL" : "https://gitlab.com/papp"
				},
				"wp_db" :
				{
					"VERSION" : "100",
					"URL" : "https://gitlab.com/papp"
				}
			},
			"OPTIONAL" :
			{
			},
			"INCOMPATIBLE" :
			{
			}
		},
		"SERVER" :
		{
		},
		"DESCRIPTION" : "SEO",
		"CHANGLOG" : "* born 2016",
		"CREATOR" :
		{
			"company" : "",
			"author" : "",
			"email" : "",
			"url" : "",
			"date" : "20160726"
		}

}